{"success":true,"data":[{"_id":"697a609924b43207c77cd697","name":"Premium Kurti & Top Set 10","description":"High-quality fabric for Kurtis and Tops. Set 10.","price":59.99,"category":"Exclusive Zari & Others","imageUrl":"https://images.unsplash.com/photo-1630734277837-7b2462d7c0f1?auto=format&fit=crop&w=500&q=80","images":["https://images.unsplash.com/photo-1630734277837-7b2462d7c0f1?auto=format&fit=crop&w=500&q=80","https://images.unsplash.com/photo-1630734277837-7b2462d7c0f1?auto=format&fit=crop&w=500&q=80"],"averageRating":0,"ratingsCount":0,"createdAt":"2026-01-28T19:16:41.385Z","updatedAt":"2026-01-28T19:16:41.385Z","__v":0},{"_id":"697a609924b43207c77cd695","name":"Premium Kurti & Top Set 8","description":"High-quality fabric for Kurtis and Tops. Set 8.","price":55.99,"category":"Exclusive Zari & Others","imageUrl":"https://images.unsplash.com/photo-1630734277837-7b2462d7c0f1?auto=format&fit=crop&w=500&q=80","images":["https://images.unsplash.com/photo-1630734277837-7b2462d7c0f1?auto=format&fit=crop&w=500&q=80","https://images.unsplash.com/photo-1630734277837-7b2462d7c0f1?auto=format&fit=crop&w=500&q=80"],"averageRating":0,"ratingsCount":0,"createdAt":"2026-01-28T19:16:41.384Z","updatedAt":"2026-01-28T19:16:41.384Z","__v":0},{"_id":"697a609924b43207c77cd694","name":"Premium Kurti & Top Set 7","description":"High-quality fabric for Kurtis and Tops. Set 7.","price":53.99,"category":"Exclusive Zari & Others","imageUrl":"https://images.unsplash.com/photo-1595777457583-95e059d581b8?auto=format&fit=crop&w=500&q=80","images":["https://images.unsplash.com/photo-1595777457583-95e059d581b8?auto=format&fit=crop&w=500&q=80","https://images.unsplash.com/photo-1595777457583-95e059d581b8?auto=format&fit=crop&w=500&q=80"],"averageRating":0,"ratingsCount":0,"createdAt":"2026-01-28T19:16:41.384Z","updatedAt":"2026-01-28T19:16:41.384Z","__v":0},{"_id":"697a609924b43207c77cd696","name":"Premium Kurti & Top Set 9","description":"High-quality fabric for Kurtis and Tops. Set 9.","price":57.99,"category":"Exclusive Zari & Others","imageUrl":"https://images.unsplash.com/photo-1595777457583-95e059d581b8?auto=format&fit=crop&w=500&q=80","images":["https://images.unsplash.com/photo-1595777457583-95e059d581b8?auto=format&fit=crop&w=500&q=80","https://images.unsplash.com/photo-1595777457583-95e059d581b8?auto=format&fit=crop&w=500&q=80"],"averageRating":0,"ratingsCount":0,"createdAt":"2026-01-28T19:16:41.384Z","updatedAt":"2026-01-28T19:16:41.384Z","__v":0},{"_id":"697a609924b43207c77cd693","name":"Premium Kurti & Top Set 6","description":"High-quality fabric for Kurtis and Tops. Set 6.","price":51.99,"category":"Exclusive Zari & Others","imageUrl":"https://images.unsplash.com/photo-1630734277837-7b2462d7c0f1?auto=format&fit=crop&w=500&q=80","images":["https://images.unsplash.com/photo-1630734277837-7b2462d7c0f1?auto=format&fit=crop&w=500&q=80","https://images.unsplash.com/photo-1630734277837-7b2462d7c0f1?auto=format&fit=crop&w=500&q=80"],"averageRating":0,"ratingsCount":0,"createdAt":"2026-01-28T19:16:41.383Z","updatedAt":"2026-01-28T19:16:41.383Z","__v":0},{"_id":"697a609924b43207c77cd692","name":"Premium Kurti & Top Set 5","description":"High-quality fabric for Kurtis and Tops. Set 5.","price":49.99,"category":"Exclusive Zari & Others","imageUrl":"https://images.unsplash.com/photo-1595777457583-95e059d581b8?auto=format&fit=crop&w=500&q=80","images":["https://images.unsplash.com/photo-1595777457583-95e059d581b8?auto=format&fit=crop&w=500&q=80","https://images.unsplash.com/photo-1595777457583-95e059d581b8?auto=format&fit=crop&w=500&q=80"],"averageRating":0,"ratingsCount":0,"createdAt":"2026-01-28T19:16:41.383Z","updatedAt":"2026-01-28T19:16:41.383Z","__v":0},{"_id":"697a609924b43207c77cd691","name":"Premium Kurti & Top Set 4","description":"High-quality fabric for Kurtis and Tops. Set 4.","price":47.99,"category":"Exclusive Zari & Others","imageUrl":"https://images.unsplash.com/photo-1630734277837-7b2462d7c0f1?auto=format&fit=crop&w=500&q=80","images":["https://images.unsplash.com/photo-1630734277837-7b2462d7c0f1?auto=format&fit=crop&w=500&q=80","https://images.unsplash.com/photo-1630734277837-7b2462d7c0f1?auto=format&fit=crop&w=500&q=80"],"averageRating":0,"ratingsCount":0,"createdAt":"2026-01-28T19:16:41.381Z","updatedAt":"2026-01-28T19:16:41.382Z","__v":0},{"_id":"697a609924b43207c77cd690","name":"Premium Kurti & Top Set 3","description":"High-quality fabric for Kurtis and Tops. Set 3.","price":45.99,"category":"Exclusive Zari & Others","imageUrl":"https://images.unsplash.com/photo-1595777457583-95e059d581b8?auto=format&fit=crop&w=500&q=80","images":["https://images.unsplash.com/photo-1595777457583-95e059d581b8?auto=format&fit=crop&w=500&q=80","https://images.unsplash.com/photo-1595777457583-95e059d581b8?auto=format&fit=crop&w=500&q=80"],"averageRating":0,"ratingsCount":0,"createdAt":"2026-01-28T19:16:41.379Z","updatedAt":"2026-01-28T19:16:41.379Z","__v":0},{"_id":"697a609924b43207c77cd68f","name":"Premium Kurti & Top Set 2","description":"High-quality fabric for Kurtis and Tops. Set 2.","price":43.99,"category":"Exclusive Zari & Others","imageUrl":"https://images.unsplash.com/photo-1630734277837-7b2462d7c0f1?auto=format&fit=crop&w=500&q=80","images":["https://images.unsplash.com/photo-1630734277837-7b2462d7c0f1?auto=format&fit=crop&w=500&q=80","https://images.unsplash.com/photo-1630734277837-7b2462d7c0f1?auto=format&fit=crop&w=500&q=80"],"averageRating":0,"ratingsCount":0,"createdAt":"2026-01-28T19:16:41.379Z","updatedAt":"2026-01-28T19:16:41.379Z","__v":0},{"_id":"697a609924b43207c77cd68e","name":"Premium Kurti & Top Set 1","description":"High-quality fabric for Kurtis and Tops. Set 1.","price":41.99,"category":"Exclusive Zari & Others","imageUrl":"https://images.unsplash.com/photo-1595777457583-95e059d581b8?auto=format&fit=crop&w=500&q=80","images":["https://images.unsplash.com/photo-1595777457583-95e059d581b8?auto=format&fit=crop&w=500&q=80","https://images.unsplash.com/photo-1595777457583-95e059d581b8?auto=format&fit=crop&w=500&q=80"],"averageRating":0,"ratingsCount":0,"createdAt":"2026-01-28T19:16:41.378Z","updatedAt":"2026-01-28T19:16:41.378Z","__v":0}],"pagination":{"page":1,"limit":10,"total":316,"pages":32}}